{
    "page": 1,
    "total_results": 4962,
    "total_pages": 249,
    "results": [
        {
            "vote_count": 3115,
            "id": 299534,
            "video": false,
            "vote_average": 8.7,
            "title": "Avengers: Endgame",
            "popularity": 471.358,
            "poster_path": "/or06FN3Dka5tukK1e9sl16pB3iy.jpg",
            "original_language": "en",
            "original_title": "Avengers: Endgame",
            "genre_ids": [
                12,
                878,
                28
            ],
            "backdrop_path": "/7RyHsO4yDXtBv1zUU3mTpHeQ0d5.jpg",
            "adult": false,
            "overview": "Thanos (Josh Brolin) hat also tatsächlich Wort gehalten, seinen Plan in die Tat umgesetzt und die Hälfte allen Lebens im Universum ausgelöscht. Die Avengers? Machtlos. Iron Man (Robert Downey Jr.) und Nebula (Karen Gillan) sitzen auf dem Planeten Titan fest, während auf der Erde absolutes Chaos herrscht. Doch dann finden Captain America (Chris Evans) und die anderen überlebenden Helden auf der Erde heraus, dass Nick Fury (Samuel L. Jackson) noch vor den verheerenden Ereignissen ein Notsignal absetzen konnte, um Verstärkung auf den Plan zu rufen. Die Superhelden-Gemeinschaft bekommt mit Captain Marvel (Brie Larson) kurzerhand tatkräftige Unterstützung im Kampf gegen ihren vermeintlich übermächtigen Widersacher. Und dann ist da auch noch Ant-Man (Paul Rudd), der wie aus dem Nichts auftaucht und sich der Truppe erneut anschließt, um Thanos ein für alle Mal in die Knie zu zwingen.",
            "release_date": "2019-04-24"
        },
        {
            "vote_count": 4433,
            "id": 299537,
            "video": false,
            "vote_average": 7.1,
            "title": "Captain Marvel",
            "popularity": 384.536,
            "poster_path": "/cYE4yXVHhBTbK3B1mOaxJLIz1XL.jpg",
            "original_language": "en",
            "original_title": "Captain Marvel",
            "genre_ids": [
                28,
                12,
                878
            ],
            "backdrop_path": "/w2PMyoyLU22YvrGK3smVM9fW1jj.jpg",
            "adult": false,
            "overview": "Bei einem Einsatz wird die Kree-Soldatin Vers (Brie Larson) von den Skrull gefangengenommen. Als die Gestaltenwandler auf Anweisung ihres Kapitäns Talos (Ben Mendelsohn) versuchen, mit einer Maschine Informationen aus dem Gehirn ihrer Geisel herauszuziehen, kann Vers mit einer Fluchtkapsel entkommen, woraufhin sie anschließend in den USA der 1990er Jahre durch das Dach einer Videothek kracht. Während die S.H.I.E.L.D.-Agenten Nick Fury (Samuel L. Jackson) und Phil Coulson (Clark Gregg) erst einmal alles daransetzen, die vermeintliche Außerirdische zu fangen, findet Vers schon bald heraus, dass sie offenbar schon einmal auf diesem Planeten war und unter dem Namen Carol Danvers als Kampfpilotin für das US-Militär gearbeitet hat...",
            "release_date": "2019-03-06"
        },
        {
            "vote_count": 273,
            "id": 456740,
            "video": false,
            "vote_average": 5.2,
            "title": "Hellboy - Call of Darkness",
            "popularity": 235.467,
            "poster_path": "/bk8LyaMqUtaQ9hUShuvFznQYQKR.jpg",
            "original_language": "en",
            "original_title": "Hellboy",
            "genre_ids": [
                28,
                12,
                14
            ],
            "backdrop_path": "/5BkSkNtfrnTuKOtTaZhl8avn4wU.jpg",
            "adult": false,
            "overview": "Im Kampf gegen das Böse kann es nur einen geben: Halbdämon Hellboy! Mit geschärftem Schwert, glutroten Hörnern und legendärer Eisenfaust hat er diesmal eine ganz besonders apokalyptische Mission: Er muss die mächtige Hexe Nimue und das Monster Gruagach stoppen, die zusammen mit einer Reihe weiterer mythischer Wesen, Tod und Zerstörung unter die Menschen bringen wollen. Doch dafür brauchen sie Hellboy. Denn seine Bestimmung war einst, selbst den Weltuntergang zu starten – bis sein Ziehvater Professor Broom ihn auf die gute Seite holte und als Spezial-Agent gegen die Monster dieser Welt einsetzte. Während Hellboy nun von Broom für einen Auftrag nach London geschickt wird, zieht Nimue eine Schneise der Verwüstung durch ganz England. Und plötzlich sehen sich Hellboy und seine Mitstreiter Anna und Ben nicht nur mit einer Armee der Finsternis konfrontiert, sondern auch mit ureigenen Dämonen. Die blutrote Schlacht kann beginnen!",
            "release_date": "2019-04-10"
        },
        {
            "vote_count": 662,
            "id": 537915,
            "video": false,
            "vote_average": 6.3,
            "title": "After Passion",
            "popularity": 198.491,
            "poster_path": "/6TgCz6gkiASAxAmaldFdnvzLwFa.jpg",
            "original_language": "en",
            "original_title": "After",
            "genre_ids": [
                18,
                10749
            ],
            "backdrop_path": "/8lESY7UGpOsbL2caib9Qe4bOebF.jpg",
            "adult": false,
            "overview": "Als Tessa Young im College auf den Bad Boy Hardin Scott trifft, gerät ihr gesamtes bisheriges Leben komplett aus der gewohnten Umlaufbahn: Die zielstrebige und ebenso kluge wie brave Schülerin verliebt sich Hals über Kopf in den Unruhestifter und verfällt seinem düsteren Reiz, der bislang vollkommen verborgene Seiten in ihr selbst zum Vorschein bringt. Sie wird nie wieder das brave Mädchen sein, das sie einmal gewesen ist.",
            "release_date": "2019-04-11"
        },
        {
            "vote_count": 341,
            "id": 438650,
            "video": false,
            "vote_average": 5.3,
            "title": "Hard Powder",
            "popularity": 175.84,
            "poster_path": "/5XhxfLSXTsTU62rx2lHNC8ENAgc.jpg",
            "original_language": "en",
            "original_title": "Cold Pursuit",
            "genre_ids": [
                28,
                18,
                53,
                80
            ],
            "backdrop_path": "/aiM3XxYE2JvW1vJ4AC6cI1RjAoT.jpg",
            "adult": false,
            "overview": "Das Thermometer zeigt Minus 10 Grad in dem glitzernden Skigebiet in den Rocky Mountains. Der Schneepflugfahrer Nels Coxman  führt mit seiner Familie ein beschauliches Leben, bis sein Sohn sich mit dem schillernden Drogenboss Viking einlässt – und auf dessen Befehl ermordet wird. Rasend vor Wut legt sich Nels mit dem mächtigen Kartell an.",
            "release_date": "2019-02-07"
        },
        {
            "vote_count": 1324,
            "id": 287947,
            "video": false,
            "vote_average": 7.2,
            "title": "Shazam!",
            "popularity": 169.844,
            "poster_path": "/xnopI5Xtky18MPhK40cZAGAOVeV.jpg",
            "original_language": "en",
            "original_title": "Shazam!",
            "genre_ids": [
                35,
                12,
                14
            ],
            "backdrop_path": "/bi4jh0Kt0uuZGsGJoUUfqmbrjQg.jpg",
            "adult": false,
            "overview": "Billy Batson muss einfach das Wort „Shazam!“ rufen, und schon verwandelt sich das freche 14-jährige Pflegekind in den erwachsenen Superhelden Shazam – so hat es ein uralter Zauberer bestimmt. Gerade weil Billy im Grunde noch ein Kind ist, genießt er sein muskelbepacktes, göttergleiches Alter Ego in vollen Zügen und probiert seine Superkräfte genauso aus, wie jeder Teenager es tun würde: Hauptsache, es macht Spaß! Kann er fliegen? Verfügt er über den Röntgenblick? Kann er aus dem Handgelenk Blitze schleudern? Shazam testet seine Fähigkeiten bis zum Anschlag – mit kindlich-unbekümmerter Rücksichtslosigkeit. Doch bald wird aus dem wilden Spiel tödlicher Ernst: Wenn Shazam seine besonderen Fähigkeiten nicht schnellstens in den Griff bekommt, wird er sich gegen die bösen Mächte von Dr. Thaddeus Sivana nicht zur Wehr setzen können.",
            "release_date": "2019-03-23"
        },
        {
            "vote_count": 1638,
            "id": 166428,
            "video": false,
            "vote_average": 7.6,
            "title": "Drachenzähmen leicht gemacht 3: Die geheime Welt",
            "popularity": 116.937,
            "poster_path": "/k28WaMcCLRdHASIWMZAcg8Sj9yc.jpg",
            "original_language": "en",
            "original_title": "How to Train Your Dragon: The Hidden World",
            "genre_ids": [
                16,
                10751,
                12
            ],
            "backdrop_path": "/lFwykSz3Ykj1Q3JXJURnGUTNf1o.jpg",
            "adult": false,
            "overview": "Hicks arbeitet nach wie vor an seinem Traum, eine Welt zu erschaffen, in der Drachen und Menschen friedlich zusammenleben können. Währenddessen trifft Ohnezahn auf eine ungezähmte Drachendame, die ihm gehörig den Kopf verdreht. Als sich eine neue Gefahr anbahnt, sind die beiden Freunde gezwungen, all ihre Fähigkeiten aufzubieten, um ihren Traum und sogar das Überleben von Ohnezahns Rasse zu sichern.",
            "release_date": "2019-01-03"
        },
        {
            "vote_count": 195,
            "id": 487297,
            "video": false,
            "vote_average": 5.7,
            "title": "Was Männer wollen",
            "popularity": 115.018,
            "poster_path": "/ndmXMTxoSEqmNurjahucTsdkxvC.jpg",
            "original_language": "en",
            "original_title": "What Men Want",
            "genre_ids": [
                35,
                14,
                10749
            ],
            "backdrop_path": "/wbAQKi2E5cO0Utk5KDk9yX3kuOu.jpg",
            "adult": false,
            "overview": "Ali Davis (Taraji P. Henson) ist eine erfolgreiche Sportagentin, die oft von ihren männlichen Kollegen außen vor gelassen wird. Als ihre Beförderung aus bleibt, fragt sie sich, was sie braucht, um in einer Männer-Welt Erfolg zu haben - bis sie die Fähigkeit erlangt Gedanken von Männern zu lesen!",
            "release_date": "2019-02-08"
        },
        {
            "vote_count": 10,
            "id": 576393,
            "video": false,
            "vote_average": 5.7,
            "title": "一吻定情",
            "popularity": 102.118,
            "poster_path": "/wtaSH8MfJSCEIrrEX9SQuHdU5sl.jpg",
            "original_language": "zh",
            "original_title": "一吻定情",
            "genre_ids": [
                10749,
                35
            ],
            "backdrop_path": "/yY7kr7Rgvo8W0Kr3U0bMV8Zq1qM.jpg",
            "adult": false,
            "overview": "",
            "release_date": "2019-02-14"
        },
        {
            "vote_count": 2524,
            "id": 450465,
            "video": false,
            "vote_average": 6.5,
            "title": "Glass",
            "popularity": 97.408,
            "poster_path": "/9xZfvSsygXPoziNJFoOjIpncloj.jpg",
            "original_language": "en",
            "original_title": "Glass",
            "genre_ids": [
                53,
                9648,
                18,
                14,
                878
            ],
            "backdrop_path": "/lvjscO8wmpEbIfOEZi92Je8Ktlg.jpg",
            "adult": false,
            "overview": "Kevin Wendell Crumb ist noch immer auf freiem Fuß und hochgefährlich. Der junge Mann, der mehrere Persönlichkeiten in sich vereint, hat schon einige Menschenleben auf dem Gewissen und die Gefahr besteht, dass es schon sehr bald mehr werden, denn in ihm schlummert die Bestie, die gefährlichste seiner Persönlichkeiten. Der unverwundbare David Dunn, der seit dem Krebstod seiner Frau gemeinsam mit Sohn Joseph eine Sicherheitsfirma betreibt, heftet sich deshalb an seine Fersen, um ihm das Handwerk zu legen. In einem Lagerhaus kommt es zum Showdown zwischen Crumb und Dunn, der jedoch von einer Spezialeinheit der Polizei unterbrochen wird. Nun müssen die beiden Männer die Psychiaterin Dr. Ellie Staple davon überzeugen, dass sie keine Superkräfte haben – ansonsten werden sie für immer weggesperrt. Mit ihnen ihm Raum sitzt ein weiterer Patient mit einem vermeintlichen Superheldenkomplex: Elijah Price alias Mr. Glass ...",
            "release_date": "2019-01-16"
        },
        {
            "vote_count": 120,
            "id": 532671,
            "video": false,
            "vote_average": 6,
            "title": "The Prodigy",
            "popularity": 80.903,
            "poster_path": "/yyejodyk3lWncVjVhhrEkPctY9o.jpg",
            "original_language": "en",
            "original_title": "The Prodigy",
            "genre_ids": [
                27,
                53
            ],
            "backdrop_path": "/oxTgovZ3TQ8LLxifUm16ROMULP5.jpg",
            "adult": false,
            "overview": "Das beunruhigende Verhalten ihres jungen Sohnes Miles deutet darauf hin, dass eine böse, womöglich übernatürliche Kraft von ihm Besitz ergriffen hat. Sarah muss sich entscheiden zwischen ihrem Mutterinstinkt, Miles zu lieben und zu schützen und dem verzweifelten Verlangen herauszufinden, was – oder wer – dafür verantwortlich ist. Sie wird gezwungen, in der Vergangenheit nach Antworten zu suchen und nimmt das Publikum mit auf einen wilden Ritt, bei dem die Grenze zwischen Wahrnehmung und Realität erschreckend unklar wird.",
            "release_date": "2019-02-06"
        },
        {
            "vote_count": 1030,
            "id": 329996,
            "video": false,
            "vote_average": 6.7,
            "title": "Dumbo",
            "popularity": 80.684,
            "poster_path": "/5HGGYBtrOdWmRV7IxXM0S2WfMYh.jpg",
            "original_language": "en",
            "original_title": "Dumbo",
            "genre_ids": [
                12,
                10751,
                14
            ],
            "backdrop_path": "/5tFt6iuGnKapHl5tw0X0cKcnuVo.jpg",
            "adult": false,
            "overview": "In der Manege macht dem Zirkusstar Holt Farrier (Colin Farrell) keiner so schnell etwas vor – doch dann kam der Krieg und plötzlich war nichts mehr, wie es einmal war. Nach seiner Heimkehr findet er dennoch zurück zu seinen Wurzeln, als ihn der Zirkusdirektor Max Medici (Danny DeVito) einstellt, um sich um einen kleinen Elefanten namens Dumbo zu kümmern, der aufgrund seiner großen Ohren zur Zielscheibe fieser Witzeleien wird. Als Holts Kinder Milly (Nico Parker) und Joe (Finley Hobbins) jedoch herausfinden, dass ihr dickhäutiger Freund fliegen kann, wendet sich das Blatt: Der Unternehmer V.A. Vandevere (Michael Keaton) wird auf den außergewöhnlichen Vierbeiner aufmerksam und holt ihn prompt an Bord seines erfolgreichen Vergnügungsparks Dreamland, wo Dumbo an der Seite von Akrobatin Colette Marchant (Eva Green) schnell zur großen Nummer wird. Doch er muss sich in Acht nehmen, im Dreamland ist nämlich nicht alles so perfekt, wie es auf den ersten Blick scheint...",
            "release_date": "2019-03-27"
        },
        {
            "vote_count": 1205,
            "id": 458723,
            "video": false,
            "vote_average": 7.2,
            "title": "Wir",
            "popularity": 75.19,
            "poster_path": "/yqBhJh7ULAPQVMjZcbVxOjf5ApR.jpg",
            "original_language": "en",
            "original_title": "Us",
            "genre_ids": [
                53,
                27
            ],
            "backdrop_path": "/jNUCddkM1fjYcFIcEwFjc7s2H4V.jpg",
            "adult": false,
            "overview": "Adelaide Wilson (Lupita Nyong'o) und ihr Mann Gabe (Winston Duke) möchten mit ihren Kindern Zora (Shahadi Wright Joseph) und Jason (Evan Alex) ein paar entspannte Sommertage an der nordkalifornischen Küste verbringen. Mit ihren Freunden, der Tyler-Familie um Kitty (Elisabeth Moss), Josh (Tim Heidecker) und ihren Zwillingstöchtern Becca (Cali Sheldon) und Lindsey (Noelle Sheldon), haben sie auch einen mehr oder weniger schönen ersten Urlaubstag am Strand. Doch als die Wilsons zurück in ihrem Ferienhaus sind, nähern sich am Abend plötzlich seltsame und furchteinflößende Gestalten ihrem Heim. Die ungebetenen Besucher jagen ihnen nicht nur große Angst ein, sie sehen den einzelnen Familienmitgliedern auch verstörend ähnlich. Brutal dringen sie schließlich in ihre Welt ein und machen gnadenlos Jagd auf die Wilsons. Adelaide, Gabe, Zora und Jason sind gezwungen, um ihr Überleben zu kämpfen und müssen sich gleichzeitig selbst jagen...",
            "release_date": "2019-03-14"
        },
        {
            "vote_count": 0,
            "id": 579598,
            "video": false,
            "vote_average": 0,
            "title": "വാരിക്കുഴിയിലെ കൊലപാതകം",
            "popularity": 68.085,
            "poster_path": "/qwDA7qSSQLwQ7JgDmHrflHFyQZf.jpg",
            "original_language": "ml",
            "original_title": "വാരിക്കുഴിയിലെ കൊലപാതകം",
            "genre_ids": [],
            "backdrop_path": null,
            "adult": false,
            "overview": "",
            "release_date": "2019-02-22"
        },
        {
            "vote_count": 1916,
            "id": 399579,
            "video": false,
            "vote_average": 6.6,
            "title": "Alita - Battle Angel",
            "popularity": 63.775,
            "poster_path": "/6So3ynMtlcTwoQVFe7nLF1NntU3.jpg",
            "original_language": "en",
            "original_title": "Alita: Battle Angel",
            "genre_ids": [
                28,
                878,
                53,
                12
            ],
            "backdrop_path": "/aQXTw3wIWuFMy0beXRiZ1xVKtcf.jpg",
            "adult": false,
            "overview": "Auf der Erde sind im 26. Jahrhundert 300 Jahre nach dem großen Krieg die gesellschaftlichen Systeme zerfallen. Bei seiner Suche nach Cyborg-Technologie rettet der mysteriöse Wissenschaftler Dr. Ido aus einem Schrotthaufen eine weibliche Cyborg. Er flickt die künstliche Frau, deren Körper bis auf ihr menschliches Gehirn aus Maschinenteilen besteht, wieder zusammen, und wird zu einer Art Ersatzvater für sie. Doch Alita ist ein gefährliches Wesen. Sie kann sich nicht erinnern, wer sie ist oder woher sie kommt. Dr. Ido jedoch glaubt, dass sie diejenige ist, die den Kreislauf von Tod und Zerstörung, der von Tiphares zurückgelassen wurde, durchbrechen kann. Um ihrer wahren Bestimmung zu folgen, muss Alita kämpfen und töten. Als ein Geschenk des Himmels ist sie doch auch ein Engel des Todes.",
            "release_date": "2019-01-31"
        },
        {
            "vote_count": 2,
            "id": 447404,
            "video": false,
            "vote_average": 8,
            "title": "Pokémon: Meisterdetektiv Pikachu",
            "popularity": 62.905,
            "poster_path": "/eGTQhQBbmblOLqDqSyxgBmu8JDF.jpg",
            "original_language": "en",
            "original_title": "POKÉMON Detective Pikachu",
            "genre_ids": [
                9648,
                10751,
                80,
                14
            ],
            "backdrop_path": "/yXybBEC45p84D0Ky7GmQQYrclVr.jpg",
            "adult": false,
            "overview": "Der Film handelt vom 21-jährigen Tim, dessen Vater, der Top-Privatdetektiv Harry Goodman, auf mysteriöse Art verschwindet. Tim beschließt nun ihn zu finden. Unterstützt wird der junge Mann vom früheren Partner seines Vaters – Pikachu. Die beiden erkennen bald, dass sie auf eine besondere Art miteinander kommunizieren können und durchkämmen gemeinsam die Stadt Ryme City.",
            "release_date": "2019-05-03"
        },
        {
            "vote_count": 996,
            "id": 522681,
            "video": false,
            "vote_average": 6.3,
            "title": "Escape Room",
            "popularity": 62.019,
            "poster_path": "/zmdRZ834diMNSZqKmMFrVgH8KPZ.jpg",
            "original_language": "en",
            "original_title": "Escape Room",
            "genre_ids": [
                53
            ],
            "backdrop_path": "/mWLljCmpqlcYQh7uh51BBMwCZwN.jpg",
            "adult": false,
            "overview": "Amanda, Mike und Ben kennen sich nicht, haben aber gemeinsam, dass sie sich für besonders intelligent halten. Wie noch drei weitere Menschen, die auch glauben, sie seien besonders schlau, bekommen sie eine ganz spezielle Einladung: Sie dürfen an einer einzigartigen Escape-Room-Erfahrung teilnehmen und können dabei sogar noch ein Preisgeld in Höhe von einer Million Dollar gewinnnen. Doch verschwiegen wird in der Einladung ein nicht ganz unwichtiges Detail: Das Spiel kann (und wird) tödlich enden, wenn man eines der extrem herausfordernden Rätsel nicht schnell genug löst...",
            "release_date": "2019-01-03"
        },
        {
            "vote_count": 46,
            "id": 390634,
            "video": false,
            "vote_average": 4.7,
            "title": "劇場版「Fate/stay night [Heaven's Feel] ⅠⅠ. lost butterfly」",
            "popularity": 59.225,
            "poster_path": "/4tS0iyKQBDFqVpVcH21MSJwXZdq.jpg",
            "original_language": "ja",
            "original_title": "劇場版「Fate/stay night [Heaven's Feel] ⅠⅠ. lost butterfly」",
            "genre_ids": [
                16,
                28,
                14,
                12
            ],
            "backdrop_path": "/2zKusjJZd8b2Cdk2C5K9dGFNWiJ.jpg",
            "adult": false,
            "overview": "",
            "release_date": "2019-01-12"
        },
        {
            "vote_count": 634,
            "id": 512196,
            "video": false,
            "vote_average": 6.1,
            "title": "Happy Deathday 2U",
            "popularity": 58.454,
            "poster_path": "/dHys6rZIXRWqPM8PjmOiGGN5VMJ.jpg",
            "original_language": "en",
            "original_title": "Happy Death Day 2U",
            "genre_ids": [
                27,
                9648,
                53,
                878,
                35
            ],
            "backdrop_path": "/dhNJHBDacrZjSPtwaiwp3idpzxU.jpg",
            "adult": false,
            "overview": "Zwei Jahre nach den Ereignissen an Tree Gelbmans Geburtstag, hat sie es weiterhin nicht wirklich leicht im Leben – und das liegt vor allem am Sterben! Nachdem die junge Studentin nämlich von einem Killer heimgesucht und kaltblütig ermordet wurde, hat sich ihr Todestag immer wieder aufs Neue wiederholt. Als es ihr schließlich gelingt, ihren Mörder zu entlarven und so die Zeitschleife zu durchbrechen, scheint der Fluch gebannt. Doch damit nicht genug: Denn jetzt wiederholt sich eben jener Tag erneut – und es ist nicht nur ihr Leben, das in Gefahr ist, sondern auch das ihrer Mitmenschen.",
            "release_date": "2019-02-13"
        },
        {
            "vote_count": 425,
            "id": 280217,
            "video": false,
            "vote_average": 6.6,
            "title": "The Lego Movie 2: The Second Part",
            "popularity": 54.685,
            "poster_path": "/QTESAsBVZwjtGJNDP7utiGV37z.jpg",
            "original_language": "en",
            "original_title": "The Lego Movie 2: The Second Part",
            "genre_ids": [
                28,
                12,
                16,
                35,
                10751,
                878,
                14
            ],
            "backdrop_path": "/8kPozGb4BDrcWBSsGPrkULG2tP9.jpg",
            "adult": false,
            "overview": "Teil 2 über den sympathischen Lego Mann Emmet und seine Freunde.",
            "release_date": "2019-01-26"
        }
    ]
}